module github.com/qml-123/AppService

go 1.18

replace github.com/apache/thrift => github.com/apache/thrift v0.13.0

require (
	github.com/apache/thrift v0.18.1
	github.com/bwmarrin/snowflake v0.3.0
	github.com/cloudwego/kitex v0.5.2
	github.com/go-redis/redis v6.15.9+incompatible
	github.com/qml-123/app_log v1.1.12
	gorm.io/driver/mysql v1.5.0
	gorm.io/gorm v1.25.1
)

require (
	github.com/armon/go-metrics v0.4.1 // indirect
	github.com/bufbuild/protocompile v0.5.1 // indirect
	github.com/bytedance/gopkg v0.0.0-20230512060433-7f5f1dee0b1e // indirect
	github.com/bytedance/mockey v1.2.1 // indirect
	github.com/chenzhuoyu/iasm v0.0.0-20230321081133-cbf34b2891ab // indirect
	github.com/choleraehyq/pid v0.0.16 // indirect
	github.com/cloudwego/fastpb v0.0.4 // indirect
	github.com/cloudwego/frugal v0.1.6 // indirect
	github.com/cloudwego/netpoll v0.3.2 // indirect
	github.com/cloudwego/thriftgo v0.2.11 // indirect
	github.com/fatih/color v1.15.0 // indirect
	github.com/go-sql-driver/mysql v1.7.0 // indirect
	github.com/golang/protobuf v1.5.3 // indirect
	github.com/google/pprof v0.0.0-20230510103437-eeec1cb781c3 // indirect
	github.com/hashicorp/consul/api v1.20.0 // indirect
	github.com/hashicorp/go-cleanhttp v0.5.2 // indirect
	github.com/hashicorp/go-hclog v1.5.0 // indirect
	github.com/hashicorp/go-immutable-radix v1.3.1 // indirect
	github.com/hashicorp/go-rootcerts v1.0.2 // indirect
	github.com/hashicorp/golang-lru v0.5.4 // indirect
	github.com/hashicorp/serf v0.10.1 // indirect
	github.com/jhump/protoreflect v1.15.1 // indirect
	github.com/jinzhu/inflection v1.0.0 // indirect
	github.com/jinzhu/now v1.1.5 // indirect
	github.com/josharian/intern v1.0.0 // indirect
	github.com/json-iterator/go v1.1.12 // indirect
	github.com/kitex-contrib/registry-consul v0.0.0-20230406075225-7d341f036654 // indirect
	github.com/mailru/easyjson v0.7.7 // indirect
	github.com/mattn/go-colorable v0.1.13 // indirect
	github.com/mattn/go-isatty v0.0.18 // indirect
	github.com/mitchellh/go-homedir v1.1.0 // indirect
	github.com/mitchellh/mapstructure v1.5.0 // indirect
	github.com/modern-go/concurrent v0.0.0-20180306012644-bacd9c7ef1dd // indirect
	github.com/modern-go/reflect2 v1.0.2 // indirect
	github.com/oleiade/lane v1.0.1 // indirect
	github.com/olivere/elastic/v7 v7.0.32 // indirect
	github.com/onsi/ginkgo v1.16.5 // indirect
	github.com/onsi/gomega v1.27.6 // indirect
	github.com/pkg/errors v0.9.1 // indirect
	github.com/sirupsen/logrus v1.9.0 // indirect
	github.com/stretchr/objx v0.5.0 // indirect
	github.com/tidwall/gjson v1.14.4 // indirect
	github.com/tidwall/match v1.1.1 // indirect
	github.com/tidwall/pretty v1.2.1 // indirect
	golang.org/x/arch v0.3.0 // indirect
	golang.org/x/net v0.10.0 // indirect
	golang.org/x/sync v0.2.0 // indirect
	golang.org/x/sys v0.8.0 // indirect
	golang.org/x/text v0.9.0 // indirect
	google.golang.org/genproto v0.0.0-20230410155749-daa745c078e1 // indirect
	google.golang.org/protobuf v1.30.0 // indirect
	gopkg.in/yaml.v3 v3.0.1 // indirect
)
